[gd_scene load_steps=2 format=2]

[ext_resource path="res://blokoj/kosmo/skriptoj/menuo.gd" type="Script" id=1]

[node name="Control" type="Control"]
anchor_right = 1.0
anchor_bottom = 1.0
mouse_filter = 2
script = ExtResource( 1 )
__meta__ = {
"_edit_use_anchors_": false
}

[node name="canvas" type="CanvasLayer" parent="."]
layer = 50

[node name="PopupMenu" type="PopupMenu" parent="canvas"]
margin_left = -1.0
margin_top = 1.7818
margin_right = 209.0
margin_bottom = 122.782
items = [ "Двигаться к объекту", null, 0, false, false, 0, 0, null, "", false, "Добавить в маршрут", null, 0, false, false, 1, 0, null, "", false, "Войти в док", null, 0, false, true, 2, 0, null, "", false, "Открыть огонь", null, 0, false, true, 3, 0, null, "", false, "Взять в прицел", null, 0, false, false, 4, 0, null, "", false ]
hide_on_state_item_selection = true
__meta__ = {
"_edit_use_anchors_": false
}
[connection signal="index_pressed" from="canvas/PopupMenu" to="." method="_on_PopupMenu_index_pressed"]
