[gd_scene load_steps=3 format=2]

[ext_resource path="res://blokoj/kosmosxipoj/skriptoj/base_ship.gd" type="Script" id=1]

[sub_resource type="CapsuleShape" id=1]
radius = 3.29615
height = 9.14674

[node name="ship" type="KinematicBody"]
script = ExtResource( 1 )

[node name="CollisionShape" type="CollisionShape" parent="."]
transform = Transform( 1, 0, 0, 0, 1, 0, 0, 0, 1, 0, 3.06553, 5.3188 )
shape = SubResource( 1 )
