[gd_scene load_steps=2 format=2]

[ext_resource path="res://blokoj/kosmosxipoj/resursoj/Platform.glb" type="PackedScene" id=1]

[node name="Platform" instance=ExtResource( 1 )]

[node name="Platform" parent="." index="0"]
transform = Transform( 1, 0, 0, 0, 1, 0, 0, 0, 1, 0, 0.524, 0 )
